{
    "Version": "2012-10-17",
    "Statement": [
        {
            "Sid": "",
            "Effect": "Allow",
            "Action": [
                "rds:*",
                "cloudwatch:*",
                "s3:*"
            ],
            "Resource": "*"
        }
    ]
}